{
    "current_version" : "v.1.1.2_beta_production-release",
    "binaries_link" : "https://api.onedrive.com/v1.0/shares/u!aHR0cHM6Ly9vbmVkcml2ZS5saXZlLmNvbS9lbWJlZD9jaWQ9NEEwMjE5MkNBRDQwN0QzNCZyZXNpZD00QTAyMTkyQ0FENDA3RDM0JTIxMTEyMSZhdXRoa2V5PUFGcW9od28wYld1VXB6aw/root/content",
    "sha256" : "0ae0a89f2dd3601ab95540ec71dcb4c4a8f127224817a12605da6f2d8b184ab3"
}